test/tb_gf4_add.vcd
$date
	Mon May 18 03:17:09 2026
$end
$version
	Icarus Verilog
$end
$timescale
	1ps
$end
$scope module tb_gf4_add $end
$var wire 4 ! result [3:0] $end
$var reg 4 " a [3:0] $end
$var reg 4 # b [3:0] $end
$var reg 4 $ expected [3:0] $end
$var reg 800 % test_name [800:1] $end
$scope module dut $end
$var wire 4 & a [3:0] $end
$var wire 1 ' a_larger $end
$var wire 4 ( b [3:0] $end
$var wire 1 ) is_inf_a $end
$var wire 1 * is_inf_b $end
$var wire 1 + is_nan_a $end
$var wire 1 , is_nan_b $end
$var wire 1 - is_special_a $end
$var wire 1 . is_special_b $end
$var wire 1 / is_zero_a $end
$var wire 1 0 is_zero_b $end
$var wire 1 1 sign_b $end
$var wire 1 2 sign_a $end
$var wire 2 3 mant_b [1:0] $end
$var wire 2 4 mant_a [1:0] $end
$var wire 1 5 exp_b $end
$var wire 1 6 exp_a $end
$var parameter 1 7 BIAS $end
$var parameter 1 8 EXP_MAX $end
$var reg 2 9 big_exp [1:0] $end
$var reg 3 : big_fm [2:0] $end
$var reg 1 ; big_sign $end
$var reg 1 < cancel $end
$var reg 3 = norm [2:0] $end
$var reg 4 > result [3:0] $end
$var reg 2 ? result_exp [1:0] $end
$var reg 1 @ result_sign $end
$var reg 3 A small_fm [2:0] $end
$var reg 1 B small_sign $end
$var reg 4 C sum_m [3:0] $end
$upscope $end
$scope task check $end
$upscope $end
$upscope $end
$enddefinitions $end
$comment Show the parameter values. $end
$dumpall
18
07
$end
#0
$dumpvars
b0 C
0B
b0 A
0@
b0 ?
b0 >
b0 =
0<
0;
b0 :
b0 9
06
05
b0 4
b0 3
02
01
10
1/
0.
0-
0,
0+
0*
0)
b0 (
1'
b0 &
b101101001100101011100100110111100100000001010110010000001011010011001010111001001101111 %
b0 $
b0 #
b0 "
b0 !
$end
#10000
b100 !
b100 >
1*
00
1)
0/
1.
1-
15
16
b100 $
b100 #
b100 (
b100 "
b100 &
b1100100010111000110000001000000010101100100000001100100010111000110000001000000011110100100000010010010110111001100110 %
#20000
b1110 !
b1110 >
11
b0 $
b1100 #
b1100 (
b110010001011100011000000100000001010110010000000101000001011010011001000101110001100000010100100100000001111010010000001011010011001010111001001101111 %
#30000
0)
1+
01
b1 4
b100 $
b100 #
b100 (
b101 "
b101 &
b1100100010111000110101001000000010101100100000001100100010111000110000001000000011110100100000010010010110111001100110 %
#40000
0*
1,
11
b1 3
b10 4
b0 $
b1101 #
b1101 (
b110 "
b110 &
b1100110010111000110000001000000010101100100000001010000010110100110010001011100011010100101001001000000011110100100000010101010110111001100100011001010111001001100110011011000110111101110111 %
#50000
10
0.
0*
0,
01
05
b0 3
b1 4
b101 $
b0 #
b0 (
b101 "
b101 &
b110010001011100011010100100000001010110010000001011010011001010111001001101111001000000011110100100000001100100010111000110101 %
#60000
1,
1/
1.
00
b1110 !
b1110 >
0'
0-
0)
0+
15
b11 3
06
b0 4
b111 $
b111 #
b111 (
b0 "
b0 &
b1011010011001010111001001101111001000000010101100100000001100110010111000110101001000000011110100100000001100110010111000110101 %
#70000
1'
1+
1*
0,
1-
0/
b0 3
12
16
b10 4
b1110 $
b100 #
b100 (
b1110 "
b1110 &
b10011100110000101001110001000000010101100100000001100100010111000110000001000000011110100100000010011100110000101001110 %
#80000
b100 !
b100 >
1)
0+
02
b0 4
b100 $
b100 "
b100 &
b10010010110111001100110001000000010101100100000001100100010111000110000001000000011110100100000010010010110111001100110 %
#90000
b1110 !
b1110 >
11
b1110 $
b1100 #
b1100 (
b10010010110111001100110001000000010101100100000001010000010110101001001011011100110011000101001001000000011110100100000010011100110000101001110 %
#100000
0)
1+
b1110 !
b1110 >
12
b1 4
b1100 $
b1101 "
b1101 &
b101000001011010011001000101110001101010010100100100000001010110010000000101000001011010011001000101110001100000010100100100000001111010010000000101101010010010110111001100110 %
